Lab4/wave.vcd
$date
	Sat Sep 18 12:52:58 2021
$end
$version
	Icarus Verilog
$end
$timescale
	1s
$end
$scope module tb_memory_64byte $end
$var wire 8 ! gray [7:0] $end
$var wire 8 " dout [7:0] $end
$var reg 6 # address [5:0] $end
$var reg 8 $ binary [7:0] $end
$var reg 1 % clk $end
$var reg 8 & din [7:0] $end
$var reg 1 ' ren $end
$var reg 1 ( wen $end
$scope module uut1 $end
$var wire 6 ) address [5:0] $end
$var wire 1 % clk $end
$var wire 8 * din [7:0] $end
$var wire 1 ' ren $end
$var wire 1 ( wen $end
$var reg 8 + dout [7:0] $end
$upscope $end
$scope module uut2 $end
$var wire 8 , in_binary [7:0] $end
$var wire 8 - out_gray [7:0] $end
$upscope $end
$upscope $end
$enddefinitions $end
#0
$dumpvars
bx -
bx ,
bx +
bx *
bx )
x(
x'
bx &
0%
bx $
bx #
bx "
bx !
$end
#1
b11001110 "
b11001110 +
1(
1'
b0 #
b0 )
#2
b10101001 !
b10101001 -
b11001110 $
b11001110 ,
#3
b10101001 &
b10101001 *
#5
1%
#10
0%
#11
b1101000 "
b1101000 +
b1 #
b1 )
#12
b1011100 !
b1011100 -
b1101000 $
b1101000 ,
#13
b1011100 &
b1011100 *
#15
1%
#20
0%
#21
b11001 "
b11001 +
b10 #
b10 )
#22
b10101 !
b10101 -
b11001 $
b11001 ,
#23
b10101 &
b10101 *
#25
1%
#30
0%
#31
b10011001 "
b10011001 +
b11 #
b11 )
#32
b11010101 !
b11010101 -
b10011001 $
b10011001 ,
#33
b11010101 &
b11010101 *
#35
1%
#40
0%
#41
b10000001 "
b10000001 +
b100 #
b100 )
#42
b11000001 !
b11000001 -
b10000001 $
b10000001 ,
#43
b11000001 &
b11000001 *
#45
1%
#50
0%
#51
b10100001 "
b10100001 +
b101 #
b101 )
#52
b11110001 !
b11110001 -
b10100001 $
b10100001 ,
#53
b11110001 &
b11110001 *
#55
1%
#60
0%
#61
b10100011 "
b10100011 +
b110 #
b110 )
#62
b11110010 !
b11110010 -
b10100011 $
b10100011 ,
#63
b11110010 &
b11110010 *
#65
1%
#70
0%
#71
b1011 "
b1011 +
b111 #
b111 )
#72
b1110 !
b1110 -
b1011 $
b1011 ,
#73
b1110 &
b1110 *
#75
1%
#80
0%
#81
b101011 "
b101011 +
b1000 #
b1000 )
#82
b111110 !
b111110 -
b101011 $
b101011 ,
#83
b111110 &
b111110 *
#85
1%
#90
0%
#91
b11100000 "
b11100000 +
b1001 #
b1001 )
#92
b10010000 !
b10010000 -
b11100000 $
b11100000 ,
#93
b10010000 &
b10010000 *
#95
1%
#100
0%
#101
b10001110 "
b10001110 +
b1010 #
b1010 )
#102
b11001001 !
b11001001 -
b10001110 $
b10001110 ,
#103
b11001001 &
b11001001 *
#105
1%
#110
0%
#111
b10110001 "
b10110001 +
b1011 #
b1011 )
#112
b11101001 !
b11101001 -
b10110001 $
b10110001 ,
#113
b11101001 &
b11101001 *
#115
1%
#120
0%
#121
b1101101 "
b1101101 +
b1100 #
b1100 )
#122
b1011011 !
b1011011 -
b1101101 $
b1101101 ,
#123
b1011011 &
b1011011 *
#125
1%
#130
0%
#131
b1100101 "
b1100101 +
b1101 #
b1101 )
#132
b1010111 !
b1010111 -
b1100101 $
b1100101 ,
#133
b1010111 &
b1010111 *
#135
1%
#140
0%
#141
b11000010 "
b11000010 +
b1110 #
b1110 )
#142
b10100011 !
b10100011 -
b11000010 $
b11000010 ,
#143
b10100011 &
b10100011 *
#145
1%
#150
0%
#151
b11110010 "
b11110010 +
b1111 #
b1111 )
#152
b10001011 !
b10001011 -
b11110010 $
b11110010 ,
#153
b10001011 &
b10001011 *
#155
1%
#160
0%
#161
b10010000 "
b10010000 +
b10000 #
b10000 )
#162
b11011000 !
b11011000 -
b10010000 $
b10010000 ,
#163
b11011000 &
b11011000 *
#165
1%
#170
0%
#171
b1000100 "
b1000100 +
b10001 #
b10001 )
#172
b1100110 !
b1100110 -
b1000100 $
b1000100 ,
#173
b1100110 &
b1100110 *
#175
1%
#180
0%
#181
b11000 "
b11000 +
b10010 #
b10010 )
#182
b10100 !
b10100 -
b11000 $
b11000 ,
#183
b10100 &
b10100 *
#185
1%
#190
0%
#191
b10011101 "
b10011101 +
b10011 #
b10011 )
#192
b11010011 !
b11010011 -
b10011101 $
b10011101 ,
#193
b11010011 &
b11010011 *
#195
1%
#200
0%
#201
b11110010 "
b11110010 +
b10100 #
b10100 )
#202
b10001011 !
b10001011 -
b11110010 $
b11110010 ,
#203
b10001011 &
b10001011 *
#205
1%
#210
0%
#211
b1101011 "
b1101011 +
b10101 #
b10101 )
#212
b1011110 !
b1011110 -
b1101011 $
b1101011 ,
#213
b1011110 &
b1011110 *
#215
1%
#220
0%
#221
b10011101 "
b10011101 +
b10110 #
b10110 )
#222
b11010011 !
b11010011 -
b10011101 $
b10011101 ,
#223
b11010011 &
b11010011 *
#225
1%
#230
0%
#231
b11011101 "
b11011101 +
b10111 #
b10111 )
#232
b10110011 !
b10110011 -
b11011101 $
b11011101 ,
#233
b10110011 &
b10110011 *
#235
1%
#240
0%
#241
b11101 "
b11101 +
b11000 #
b11000 )
#242
b10011 !
b10011 -
b11101 $
b11101 ,
#243
b10011 &
b10011 *
#245
1%
#250
0%
#251
b11010 "
b11010 +
b11001 #
b11001 )
#252
b10111 !
b10111 -
b11010 $
b11010 ,
#253
b10111 &
b10111 *
#255
1%
#260
0%
#261
b10000 "
b10000 +
b11010 #
b11010 )
#262
b11000 !
b11000 -
b10000 $
b10000 ,
#263
b11000 &
b11000 *
#265
1%
#270
0%
#271
b11100110 "
b11100110 +
b11011 #
b11011 )
#272
b10010101 !
b10010101 -
b11100110 $
b11100110 ,
#273
b10010101 &
b10010101 *
#275
1%
#280
0%
#281
b11000 "
b11000 +
b11100 #
b11100 )
#282
b10100 !
b10100 -
b11000 $
b11000 ,
#283
b10100 &
b10100 *
#285
1%
#290
0%
#291
b11 "
b11 +
b11101 #
b11101 )
#292
b10 !
b10 -
b11 $
b11 ,
#293
b10 &
b10 *
#295
1%
#300
0%
#301
b11011011 "
b11011011 +
b11110 #
b11110 )
#302
b10110110 !
b10110110 -
b11011011 $
b11011011 ,
#303
b10110110 &
b10110110 *
#305
1%
#310
0%
#311
b11001111 "
b11001111 +
b11111 #
b11111 )
#312
b10101000 !
b10101000 -
b11001111 $
b11001111 ,
#313
b10101000 &
b10101000 *
#315
1%
#320
0%
#321
b111010 "
b111010 +
b100000 #
b100000 )
#322
b100111 !
b100111 -
b111010 $
b111010 ,
#323
b100111 &
b100111 *
#325
1%
#330
0%
#331
b111000 "
b111000 +
b100001 #
b100001 )
#332
b100100 !
b100100 -
b111000 $
b111000 ,
#333
b100100 &
b100100 *
#335
1%
#340
0%
#341
b1000011 "
b1000011 +
b100010 #
b100010 )
#342
b1100010 !
b1100010 -
b1000011 $
b1000011 ,
#343
b1100010 &
b1100010 *
#345
1%
#350
0%
#351
b1010011 "
b1010011 +
b100011 #
b100011 )
#352
b1111010 !
b1111010 -
b1010011 $
b1010011 ,
#353
b1111010 &
b1111010 *
#355
1%
#360
0%
#361
b101 "
b101 +
b100100 #
b100100 )
#362
b111 !
b111 -
b101 $
b101 ,
#363
b111 &
b111 *
#365
1%
#370
0%
#371
b10100101 "
b10100101 +
b100101 #
b100101 )
#372
b11110111 !
b11110111 -
b10100101 $
b10100101 ,
#373
b11110111 &
b11110111 *
#375
1%
#380
0%
#381
b10001001 "
b10001001 +
b100110 #
b100110 )
#382
b11001101 !
b11001101 -
b10001001 $
b10001001 ,
#383
b11001101 &
b11001101 *
#385
1%
#390
0%
#391
b11010010 "
b11010010 +
b100111 #
b100111 )
#392
b10111011 !
b10111011 -
b11010010 $
b11010010 ,
#393
b10111011 &
b10111011 *
#395
1%
#400
0%
#401
b1110000 "
b1110000 +
b101000 #
b101000 )
#402
b1001000 !
b1001000 -
b1110000 $
b1110000 ,
#403
b1001000 &
b1001000 *
#405
1%
#410
0%
#411
b10010 "
b10010 +
b101001 #
b101001 )
#412
b11011 !
b11011 -
b10010 $
b10010 ,
#413
b11011 &
b11011 *
#415
1%
#420
0%
#421
b10110100 "
b10110100 +
b101010 #
b101010 )
#422
b11101110 !
b11101110 -
b10110100 $
b10110100 ,
#423
b11101110 &
b11101110 *
#425
1%
#430
0%
#431
b10110101 "
b10110101 +
b101011 #
b101011 )
#432
b11101111 !
b11101111 -
b10110101 $
b10110101 ,
#433
b11101111 &
b11101111 *
#435
1%
#440
0%
#441
b1011110 "
b1011110 +
b101100 #
b101100 )
#442
b1110001 !
b1110001 -
b1011110 $
b1011110 ,
#443
b1110001 &
b1110001 *
#445
1%
#450
0%
#451
b1001001 "
b1001001 +
b101101 #
b101101 )
#452
b1101101 !
b1101101 -
b1001001 $
b1001001 ,
#453
b1101101 &
b1101101 *
#455
1%
#460
0%
#461
b11010010 "
b11010010 +
b101110 #
b101110 )
#462
b10111011 !
b10111011 -
b11010010 $
b11010010 ,
#463
b10111011 &
b10111011 *
#465
1%
#470
0%
#471
b1110011 "
b1110011 +
b101111 #
b101111 )
#472
b1001010 !
b1001010 -
b1110011 $
b1110011 ,
#473
b1001010 &
b1001010 *
#475
1%
#480
0%
#481
b11101001 "
b11101001 +
b110000 #
b110000 )
#482
b10011101 !
b10011101 -
b11101001 $
b11101001 ,
#483
b10011101 &
b10011101 *
#485
1%
#490
0%
#491
b1111010 "
b1111010 +
b110001 #
b110001 )
#492
b1000111 !
b1000111 -
b1111010 $
b1111010 ,
#493
b1000111 &
b1000111 *
#495
1%
#500
0%
#501
b11010001 "
b11010001 +
b110010 #
b110010 )
#502
b10111001 !
b10111001 -
b11010001 $
b11010001 ,
#503
b10111001 &
b10111001 *
#505
1%
#510
0%
#511
b11000 "
b11000 +
b110011 #
b110011 )
#512
b10100 !
b10100 -
b11000 $
b11000 ,
#513
b10100 &
b10100 *
#515
1%
#520
0%
#521
b1000001 "
b1000001 +
b110100 #
b110100 )
#522
b1100001 !
b1100001 -
b1000001 $
b1000001 ,
#523
b1100001 &
b1100001 *
#525
1%
#530
0%
#531
b1000000 "
b1000000 +
b110101 #
b110101 )
#532
b1100000 !
b1100000 -
b1000000 $
b1000000 ,
#533
b1100000 &
b1100000 *
#535
1%
#540
0%
#541
b11011 "
b11011 +
b110110 #
b110110 )
#542
b10110 !
b10110 -
b11011 $
b11011 ,
#543
b10110 &
b10110 *
#545
1%
#550
0%
#551
b11101 "
b11101 +
b110111 #
b110111 )
#552
b10011 !
b10011 -
b11101 $
b11101 ,
#553
b10011 &
b10011 *
#555
1%
#560
0%
#561
b10000000 "
b10000000 +
b111000 #
b111000 )
#562
b11000000 !
b11000000 -
b10000000 $
b10000000 ,
#563
b11000000 &
b11000000 *
#565
1%
#570
0%
#571
b10101011 "
b10101011 +
b111001 #
b111001 )
#572
b11111110 !
b11111110 -
b10101011 $
b10101011 ,
#573
b11111110 &
b11111110 *
#575
1%
#580
0%
#581
b1110111 "
b1110111 +
b111010 #
b111010 )
#582
b1001100 !
b1001100 -
b1110111 $
b1110111 ,
#583
b1001100 &
b1001100 *
#585
1%
#590
0%
#591
b100010 "
b100010 +
b111011 #
b111011 )
#592
b110011 !
b110011 -
b100010 $
b100010 ,
#593
b110011 &
b110011 *
#595
1%
#600
0%
#601
b10001000 "
b10001000 +
b111100 #
b111100 )
#602
b11001100 !
b11001100 -
b10001000 $
b10001000 ,
#603
b11001100 &
b11001100 *
#605
1%
#610
0%
#611
b10100000 "
b10100000 +
b111101 #
b111101 )
#612
b11110000 !
b11110000 -
b10100000 $
b10100000 ,
#613
b11110000 &
b11110000 *
#615
1%
#620
0%
#621
b1011000 "
b1011000 +
b111110 #
b111110 )
#622
b1110100 !
b1110100 -
b1011000 $
b1011000 ,
#623
b1110100 &
b1110100 *
#625
1%
#630
0%
#631
b11011111 "
b11011111 +
b111111 #
b111111 )
#632
b10110000 !
b10110000 -
b11011111 $
b11011111 ,
#633
b10110000 &
b10110000 *
#635
1%
#640
0%
#641
b10101001 "
b10101001 +
b0 #
b0 )
#645
1%
#650
0%
#651
0(
#653
b1011100 "
b1011100 +
b1 #
b1 )
#655
b10101 "
b10101 +
b10 #
b10 )
1%
#657
b11010101 "
b11010101 +
b11 #
b11 )
#659
b11000001 "
b11000001 +
b100 #
b100 )
#660
0%
#661
b11110001 "
b11110001 +
b101 #
b101 )
#663
b11110010 "
b11110010 +
b110 #
b110 )
#665
b1110 "
b1110 +
b111 #
b111 )
1%
#667
b111110 "
b111110 +
b1000 #
b1000 )
#669
b10010000 "
b10010000 +
b1001 #
b1001 )
#670
0%
#671
b11001001 "
b11001001 +
b1010 #
b1010 )
#673
b11101001 "
b11101001 +
b1011 #
b1011 )
#675
b1011011 "
b1011011 +
b1100 #
b1100 )
1%
#677
b1010111 "
b1010111 +
b1101 #
b1101 )
#679
b10100011 "
b10100011 +
b1110 #
b1110 )
#680
0%
#681
b10001011 "
b10001011 +
b1111 #
b1111 )
#683
b11011000 "
b11011000 +
b10000 #
b10000 )
#685
b1100110 "
b1100110 +
b10001 #
b10001 )
1%
#687
b10100 "
b10100 +
b10010 #
b10010 )
#689
b11010011 "
b11010011 +
b10011 #
b10011 )
#690
0%
#691
b10001011 "
b10001011 +
b10100 #
b10100 )
#693
b1011110 "
b1011110 +
b10101 #
b10101 )
#695
b11010011 "
b11010011 +
b10110 #
b10110 )
1%
#697
b10110011 "
b10110011 +
b10111 #
b10111 )
#699
b10011 "
b10011 +
b11000 #
b11000 )
#700
0%
#701
b10111 "
b10111 +
b11001 #
b11001 )
#703
b11000 "
b11000 +
b11010 #
b11010 )
#705
b10010101 "
b10010101 +
b11011 #
b11011 )
1%
#707
b10100 "
b10100 +
b11100 #
b11100 )
#709
b10 "
b10 +
b11101 #
b11101 )
#710
0%
#711
b10110110 "
b10110110 +
b11110 #
b11110 )
#713
b10101000 "
b10101000 +
b11111 #
b11111 )
#715
b100111 "
b100111 +
b100000 #
b100000 )
1%
#717
b100100 "
b100100 +
b100001 #
b100001 )
#719
b1100010 "
b1100010 +
b100010 #
b100010 )
#720
0%
#721
b1111010 "
b1111010 +
b100011 #
b100011 )
#723
b111 "
b111 +
b100100 #
b100100 )
#725
b11110111 "
b11110111 +
b100101 #
b100101 )
1%
#727
b11001101 "
b11001101 +
b100110 #
b100110 )
#729
b10111011 "
b10111011 +
b100111 #
b100111 )
#730
0%
#731
b1001000 "
b1001000 +
b101000 #
b101000 )
#733
b11011 "
b11011 +
b101001 #
b101001 )
#735
b11101110 "
b11101110 +
b101010 #
b101010 )
1%
#737
b11101111 "
b11101111 +
b101011 #
b101011 )
#739
b1110001 "
b1110001 +
b101100 #
b101100 )
#740
0%
#741
b1101101 "
b1101101 +
b101101 #
b101101 )
#743
b10111011 "
b10111011 +
b101110 #
b101110 )
#745
b1001010 "
b1001010 +
b101111 #
b101111 )
1%
#747
b10011101 "
b10011101 +
b110000 #
b110000 )
#749
b1000111 "
b1000111 +
b110001 #
b110001 )
#750
0%
#751
b10111001 "
b10111001 +
b110010 #
b110010 )
#753
b10100 "
b10100 +
b110011 #
b110011 )
#755
b1100001 "
b1100001 +
b110100 #
b110100 )
1%
#757
b1100000 "
b1100000 +
b110101 #
b110101 )
#759
b10110 "
b10110 +
b110110 #
b110110 )
#760
0%
#761
b10011 "
b10011 +
b110111 #
b110111 )
#763
b11000000 "
b11000000 +
b111000 #
b111000 )
#765
b11111110 "
b11111110 +
b111001 #
b111001 )
1%
#767
b1001100 "
b1001100 +
b111010 #
b111010 )
#769
b110011 "
b110011 +
b111011 #
b111011 )
#770
0%
#771
b11001100 "
b11001100 +
b111100 #
b111100 )
#773
b11110000 "
b11110000 +
b111101 #
b111101 )
#775
b1110100 "
b1110100 +
b111110 #
b111110 )
1%
#777
b10110000 "
b10110000 +
b111111 #
b111111 )
#779
b0 #
b0 )
